HW3-Reading and Manipulating Data
…
Rows: 214 Columns: 11
── Column specification ────────────────────────────────────────────────────────
Delimiter: ","
dbl (11): Id, RI, Na, Mg, Al, Si, K, Ca, Ba, Fe, Type_of_glass

ℹ Use `spec()` to retrieve the full column specification for this data.
ℹ Specify the column types or set `show_col_types = FALSE` to quiet this message.

# print out the tibble
glass_data

# A tibble: 214 × 11
      Id    RI    Na    Mg    Al    Si     K    Ca    Ba    Fe Type_of_glass
   <dbl> <dbl> <dbl> <dbl> <dbl> <dbl> <dbl> <dbl> <dbl> <dbl>         <dbl>
 1     1  1.52  13.6  4.49  1.1   71.8  0.06  8.75     0  0                1
 2     2  1.52  13.9  3.6   1.36  72.7  0.48  7.83     0  0                1
 3     3  1.52  13.5  3.55  1.54  73.0  0.39  7.78     0  0                1
 4     4  1.52  13.2  3.69  1.29  72.6  0.57  8.22     0  0                1
 5     5  1.52  13.3  3.62  1.24  73.1  0.55  8.07     0  0                1
 6     6  1.52  12.8  3.61  1.62  73.0  0.64  8.07     0  0.26             1
 7     7  1.52  13.3  3.6   1.14  73.1  0.58  8.17     0  0                1
 8     8  1.52  13.2  3.61  1.05  73.2  0.57  8.24     0  0                1
 9     9  1.52  14.0  3.58  1.37  72.1  0.56  8.3      0  0                1
10    10  1.52  13    3.6   1.36  73.0  0.57  8.4      0  0.11             1
# ℹ 204 more rows
…
Rows: 1484 Columns: 10
── Column specification ────────────────────────────────────────────────────────

chr (2): seq_name, class
dbl (8): mcg, gvh, alm, mit, erl, pox, vac, nuc

ℹ Use `spec()` to retrieve the full column specification for this data.
ℹ Specify the column types or set `show_col_types = FALSE` to quiet this message.

# print the tibble                       
yeast_data

# A tibble: 1,484 × 10
   seq_name     mcg   gvh   alm   mit   erl   pox   vac   nuc class
   <chr>      <dbl> <dbl> <dbl> <dbl> <dbl> <dbl> <dbl> <dbl> <chr>
 1 ADT1_YEAST  0.58  0.61  0.47  0.13   0.5   0    0.48  0.22 MIT  
 2 ADT2_YEAST  0.43  0.67  0.48  0.27   0.5   0    0.53  0.22 MIT  
 3 ADT3_YEAST  0.64  0.62  0.49  0.15   0.5   0    0.53  0.22 MIT  
 4 AAR2_YEAST  0.58  0.44  0.57  0.13   0.5   0    0.54  0.22 NUC  
 5 AATM_YEAST  0.42  0.44  0.48  0.54   0.5   0    0.48  0.22 MIT  
 6 AATC_YEAST  0.51  0.4   0.56  0.17   0.5   0.5  0.49  0.22 CYT  
 7 ABC1_YEAST  0.5   0.54  0.48  0.65   0.5   0    0.53  0.22 MIT  
 8 BAF1_YEAST  0.48  0.45  0.59  0.2    0.5   0    0.58  0.34 NUC  
 9 ABF2_YEAST  0.55  0.5   0.66  0.36   0.5   0    0.49  0.22 MIT  
10 ABP1_YEAST  0.4   0.39  0.6   0.15   0.5   0    0.58  0.3  CYT  
# ℹ 1,474 more rows
…
Task 2_2: Combining Excel and Delimited Data

# read in white wine data
library(readxl)

Warning: package 'readxl' was built under R version 4.3.3

library(dplyr)
white_wine_data <-read_excel("white-wine.xlsx")
white_wine_data

# A tibble: 4,898 × 12
   `fixed acidity` `volatile acidity` `citric acid` `residual sugar` chlorides
             <dbl>              <dbl>         <dbl>            <dbl>     <dbl>
 1               7               0.27          0.36             20.7     0.045
 2              63               0.3           0.34              1.6     0.049
 3              81               0.28          0.4               6.9     0.05 
 4              72               0.23          0.32              8.5     0.058
 5              72               0.23          0.32              8.5     0.058
 6              81               0.28          0.4               6.9     0.05 
 7              62               0.32          0.16              7       0.045
 8               7               0.27          0.36             20.7     0.045
 9              63               0.3           0.34              1.6     0.049
10              81               0.22          0.43              1.5     0.044
# ℹ 4,888 more rows
# ℹ 7 more variables: `free sulfur dioxide` <dbl>,
#   `total sulfur dioxide` <dbl>, density <dbl>, pH <dbl>, sulphates <dbl>,
#   alcohol <dbl>, quality <dbl>

# read the var names from 2nd sheet
new_names <- read_excel("white-wine.xlsx",
                        sheet = excel_sheets("white-wine.xlsx")[2],
                        col_names = TRUE)

colnames(white_wine_data)<-new_names$Variables
white_wine_data

# A tibble: 4,898 × 12
   fixed_acidity volatile_acidity citric_acid residual_sugar chlorides
           <dbl>            <dbl>       <dbl>          <dbl>     <dbl>
 1             7             0.27        0.36           20.7     0.045
 2            63             0.3         0.34            1.6     0.049
 3            81             0.28        0.4             6.9     0.05 
 4            72             0.23        0.32            8.5     0.058
 5            72             0.23        0.32            8.5     0.058
 6            81             0.28        0.4             6.9     0.05 
 7            62             0.32        0.16            7       0.045
 8             7             0.27        0.36           20.7     0.045
 9            63             0.3         0.34            1.6     0.049
10            81             0.22        0.43            1.5     0.044
# ℹ 4,888 more rows
# ℹ 7 more variables: free_sulfur_dioxide <dbl>, total_sulfur_dioxide <dbl>,
#   density <dbl>, pH <dbl>, sulphates <dbl>, alcohol <dbl>, quality <dbl>
…
# combine two data sets into one.
combine_wine_tbl <-dplyr::bind_rows(white_wine_data,red_wine_data)

# filter the data quality>6.5 and alcohol<132
combine_wine_tbl |>
  filter(quality>6.5 & alcohol<132) |>
  # sort the data from highst quality to lowest
  arrange(desc(quality)) |>
  # select only var contain acid, and alcohol, type, quality variable
  select(contains('acid'),alcohol,type,quality) |>
  # add the mean and std of the alcohol variable for each setting of the quality variable
  group_by(quality) |>
  mutate(mean_alcohol=mean(alcohol,na.rm=TRUE),sd_alcohol=sd(alcohol,na.rm=TRUE))

# A tibble: 1,206 × 8
# Groups:   quality [3]
   fixed_acidity volatile_acidity citric_acid alcohol type  quality mean_alcohol
           <dbl>            <dbl>       <dbl>   <dbl> <chr>   <dbl>        <dbl>
 1            91             0.27        0.45     104 white       9        122. 
 2            66             0.36        0.29     124 white       9        122. 
 3            74             0.24        0.36     125 white       9        122. 
 4            69             0.36        0.34     127 white       9        122. 
 5            71             0.26        0.49     129 white       9        122. 
 6            62             0.66        0.48     128 white       8         94.1
 7            62             0.66        0.48     128 white       8         94.1
 8            68             0.26        0.42     105 white       8         94.1
 9            67             0.23        0.31     107 white       8         94.1
10            67             0.23        0.31     107 white       8         94.1
# ℹ 1,196 more rows
# ℹ 1 more variable: sd_alcohol <dbl>
…
# 6.return playerID(manager ID),G,W,L columns from the Managers table and then determine sum of wins and sum of losses for each of these hall of fame managers.
my_data <-tbl(con,"Managers") |>
  select(playerID,G,W,L) |>
  group_by(playerID) |>
  summarize(G_managed = sum(G, na.rm=TRUE),
            Total_W =sum(W,na.rm=TRUE),
            Total_L =sum(L,na.rm=TRUE)) |>
  collect() |>
    mutate(win_loss_percent = (Total_W / G_managed *100)) |>
  arrange(desc(win_loss_percent)) |>
  print(n=30)

# A tibble: 749 × 5
   playerID  G_managed Total_W Total_L win_loss_percent
   <chr>         <int>   <int>   <int>            <dbl>
 1 bensove01         1       1       0            100  
 2 burwebi01         1       1       0            100  
 3 cohenan01         1       1       0            100  
 4 ebeldi99          3       3       0            100  
 5 falkbi01          1       1       0            100  
 6 hardeme01         3       3       0            100  
 7 simmote01         1       1       0            100  
 8 steinte01         2       2       0            100  
 9 sukefcl01         2       2       0            100  
10 tamarjo01         1       1       0            100  
11 tracedi01         2       2       0            100  
12 tuckga99          1       1       0            100  
13 whitejo01         1       1       0            100  
14 wilbede01         1       1       0            100  
15 eversbi99         5       4       1             80  
16 queenme02         5       4       1             80  
17 speiech01        18      14       4             77.8
18 gowdyha01         4       3       1             75  
19 highadi01        40      29      11             72.5
20 startjo01        25      18       7             72  
21 grohhe01         10       7       3             70  
22 graffma99        56      39      17             69.6
23 wrighge01        85      59      25             69.4
24 clemeja01        19      13       6             68.4
25 sullipa99         3       2       1             66.7
26 campaco01        42      27      14             64.3
27 mcbridi01       252     161      85             63.9
28 bogarti01        22      14       8             63.6
29 roberda07      1034     653     381             63.2
30 benavfr01         8       5       3             62.5
# ℹ 719 more rows
…
  collect() |>
  select(playerID,yearID,category,nameFirst,nameLast),
  tbl(con,"Managers") |>
  select(playerID,G,W,L) |>
  group_by(playerID) |>
  summarize(G_managed = sum(G, na.rm=TRUE),
            Total_W =sum(W,na.rm=TRUE),
            Total_L =sum(L,na.rm=TRUE)) |>
  collect() |>
    mutate(win_loss_percent = (Total_W / G_managed *100)) |>
  arrange(desc(win_loss_percent)),
  by= join_by(playerID==playerID) )|>
    collect()

# A tibble: 1,634 × 9
   playerID  yearID category nameFirst nameLast  G_managed Total_W Total_L
   <chr>      <int> <chr>    <chr>     <chr>         <int>   <int>   <int>
 1 cobbty01    1936 Player   Ty        Cobb            933     479     444
 2 wagneho01   1936 Player   Honus     Wagner            5       1       4
 3 mathech01   1936 Player   Christy   Mathewson       346     164     176
 4 johnswa01   1936 Player   Walter    Johnson         966     529     432
 5 lajoina01   1936 Player   Nap       Lajoie          700     377     309
 6 speaktr01   1936 Player   Tris      Speaker        1139     617     520
 7 youngcy01   1936 Player   Cy        Young             6       3       3
 8 hornsro01   1936 Player   Rogers    Hornsby        1530     701     812
 9 cochrmi01   1936 Player   Mickey    Cochrane        600     348     250
10 sislege01   1936 Player   George    Sisler          462     218     241
# ℹ 1,624 more rows
# ℹ 1 more variable: win_loss_percent <dbl>
